controlador/simulation/qsim/controlador.msim.vcd
$comment
	File created using the following command:
		vcd file controlador.msim.vcd -direction
$end
$date
	Wed Nov 13 13:31:55 2019
$end
$version
	ModelSim Version 10.1d
$end
$timescale
	1ps
$end
$scope module controlador_vlg_vec_tst $end
$var reg 1 ! clk $end
$var reg 1 " reset $end
$var reg 8 # RI1_inC [7:0] $end
$var reg 8 $ RI2_inC [7:0] $end
$var wire 1 % outGenerico1 [15] $end
$var wire 1 & outGenerico1 [14] $end
$var wire 1 ' outGenerico1 [13] $end
$var wire 1 ( outGenerico1 [12] $end
$var wire 1 ) outGenerico1 [11] $end
$var wire 1 * outGenerico1 [10] $end
$var wire 1 + outGenerico1 [9] $end
$var wire 1 , outGenerico1 [8] $end
$var wire 1 - outGenerico1 [7] $end
$var wire 1 . outGenerico1 [6] $end
$var wire 1 / outGenerico1 [5] $end
$var wire 1 0 outGenerico1 [4] $end
$var wire 1 1 outGenerico1 [3] $end
$var wire 1 2 outGenerico1 [2] $end
$var wire 1 3 outGenerico1 [1] $end
$var wire 1 4 outGenerico1 [0] $end
$var wire 1 5 outGenerico2 $end
$var wire 1 6 outGenerico3 [1] $end
$var wire 1 7 outGenerico3 [0] $end
$var wire 1 8 RO1_outC [7] $end
$var wire 1 9 RO1_outC [6] $end
$var wire 1 : RO1_outC [5] $end
$var wire 1 ; RO1_outC [4] $end
$var wire 1 < RO1_outC [3] $end
$var wire 1 = RO1_outC [2] $end
$var wire 1 > RO1_outC [1] $end
$var wire 1 ? RO1_outC [0] $end
$var wire 1 @ RO2_outC [7] $end
$var wire 1 A RO2_outC [6] $end
$var wire 1 B RO2_outC [5] $end
$var wire 1 C RO2_outC [4] $end
$var wire 1 D RO2_outC [3] $end
$var wire 1 E RO2_outC [2] $end
$var wire 1 F RO2_outC [1] $end
$var wire 1 G RO2_outC [0] $end
$var wire 1 H sampler $end
$scope module i1 $end
$var wire 1 I gnd $end
$var wire 1 J vcc $end
$var wire 1 K unknown $end
$var tri1 1 L devclrn $end
$var tri1 1 M devpor $end
$var tri1 1 N devoe $end
$var wire 1 O clk~combout $end
$var wire 1 P clk~clkctrl_outclk $end
$var wire 1 Q state~31_combout $end
$var wire 1 R reset~combout $end
$var wire 1 S reset~clkctrl_outclk $end
$var wire 1 T state.busca~regout $end
$var wire 1 U state.decod~feeder_combout $end
$var wire 1 V state.decod~regout $end
$var wire 1 W state.ADD~regout $end
$var wire 1 X state.inicio~feeder_combout $end
$var wire 1 Y state.inicio~regout $end
$var wire 1 Z IR_ldC~0_combout $end
$var wire 1 [ IR_ldC~1_combout $end
$var wire 1 \ IR_ldC~regout $end
$upscope $end
$upscope $end
$enddefinitions $end
#0
$dumpvars
0!
1"
bx #
bx $
04
03
02
01
00
0/
0.
0-
0,
0+
0*
0)
0(
0'
0&
0%
05
07
06
0?
0>
0=
0<
0;
0:
09
08
0G
0F
0E
0D
0C
0B
0A
0@
xH
0I
1J
xK
1L
1M
1N
0O
0P
1Q
1R
1S
0T
0U
0V
0W
1X
0Y
1Z
0[
0\
$end
#10000
1!
1O
1P
0H
#20000
0"
0!
0R
0O
0P
0S
1H
#30000
1!
1O
1P
0H
1Y
1T
1[
1U
0Q
#40000
0!
0O
0P
1H
#50000
1!
1O
1P
0H
1\
1V
0T
0Z
0U
15
0[
#60000
0!
0O
0P
1H
#70000
1!
1O
1P
0H
0\
1W
0V
1Z
1Q
05
#80000
0!
0O
0P
1H
#90000
1!
1O
1P
0H
0W
1T
1[
1U
0Q
#100000
0!
0O
0P
1H
#110000
1!
1O
1P
0H
1\
1V
0T
0Z
0U
15
0[
#120000
0!
0O
0P
1H
#130000
1!
1O
1P
0H
0\
1W
0V
1Z
1Q
05
#140000
0!
0O
0P
1H
#150000
1!
1O
1P
0H
0W
1T
1[
1U
0Q
#160000
0!
0O
0P
1H
#170000
1!
1O
1P
0H
1\
1V
0T
0Z
0U
15
0[
#180000
0!
0O
0P
1H
#190000
1!
1O
1P
0H
0\
1W
0V
1Z
1Q
05
#200000
0!
0O
0P
1H
#210000
1!
1O
1P
0H
0W
1T
1[
1U
0Q
#220000
0!
0O
0P
1H
#230000
1!
1O
1P
0H
1\
1V
0T
0Z
0U
15
0[
#240000
0!
0O
0P
1H
#250000
1!
1O
1P
0H
0\
1W
0V
1Z
1Q
05
#260000
0!
0O
0P
1H
#270000
1!
1O
1P
0H
0W
1T
1[
1U
0Q
#280000
0!
0O
0P
1H
#290000
1!
1O
1P
0H
1\
1V
0T
0Z
0U
15
0[
#300000
0!
0O
0P
1H
#310000
1!
1O
1P
0H
0\
1W
0V
1Z
1Q
05
#320000
0!
0O
0P
1H
#330000
1!
1O
1P
0H
0W
1T
1[
1U
0Q
#340000
0!
0O
0P
1H
#350000
1!
1O
1P
0H
1\
1V
0T
0Z
0U
15
0[
#360000
0!
0O
0P
1H
#370000
1!
1O
1P
0H
0\
1W
0V
1Z
1Q
05
#380000
0!
0O
0P
1H
#390000
1!
1O
1P
0H
0W
1T
1[
1U
0Q
#400000
0!
0O
0P
1H
#410000
1!
1O
1P
0H
1\
1V
0T
0Z
0U
15
0[
#420000
0!
0O
0P
1H
#430000
1!
1O
1P
0H
0\
1W
0V
1Z
1Q
05
#440000
0!
0O
0P
1H
#450000
1!
1O
1P
0H
0W
1T
1[
1U
0Q
#460000
0!
0O
0P
1H
#470000
1!
1O
1P
0H
1\
1V
0T
0Z
0U
15
0[
#480000
0!
0O
0P
1H
#490000
1!
1O
1P
0H
0\
1W
0V
1Z
1Q
05
#500000
0!
0O
0P
1H
#510000
1!
1O
1P
0H
0W
1T
1[
1U
0Q
#520000
0!
0O
0P
1H
#530000
1!
1O
1P
0H
1\
1V
0T
0Z
0U
15
0[
#540000
0!
0O
0P
1H
#550000
1!
1O
1P
0H
0\
1W
0V
1Z
1Q
05
#560000
0!
0O
0P
1H
#570000
1!
1O
1P
0H
0W
1T
1[
1U
0Q
#580000
0!
0O
0P
1H
#590000
1!
1O
1P
0H
1\
1V
0T
0Z
0U
15
0[
#600000
0!
0O
0P
1H
#610000
1!
1O
1P
0H
0\
1W
0V
1Z
1Q
05
#620000
0!
0O
0P
1H
#630000
1!
1O
1P
0H
0W
1T
1[
1U
0Q
#640000
0!
0O
0P
1H
#650000
1!
1O
1P
0H
1\
1V
0T
0Z
0U
15
0[
#660000
0!
0O
0P
1H
#670000
1!
1O
1P
0H
0\
1W
0V
1Z
1Q
05
#680000
0!
0O
0P
1H
#690000
1!
1O
1P
0H
0W
1T
1[
1U
0Q
#700000
0!
0O
0P
1H
#710000
1!
1O
1P
0H
1\
1V
0T
0Z
0U
15
0[
#720000
0!
0O
0P
1H
#730000
1!
1O
1P
0H
0\
1W
0V
1Z
1Q
05
#740000
0!
0O
0P
1H
#750000
1!
1O
1P
0H
0W
1T
1[
1U
0Q
#760000
0!
0O
0P
1H
#770000
1!
1O
1P
0H
1\
1V
0T
0Z
0U
15
0[
#780000
0!
0O
0P
1H
#790000
1!
1O
1P
0H
0\
1W
0V
1Z
1Q
05
#800000
0!
0O
0P
1H
#810000
1!
1O
1P
0H
0W
1T
1[
1U
0Q
#820000
0!
0O
0P
1H
#830000
1!
1O
1P
0H
1\
1V
0T
0Z
0U
15
0[
#840000
0!
0O
0P
1H
#850000
1!
1O
1P
0H
0\
1W
0V
1Z
1Q
05
#860000
0!
0O
0P
1H
#870000
1!
1O
1P
0H
0W
1T
1[
1U
0Q
#880000
0!
0O
0P
1H
#890000
1!
1O
1P
0H
1\
1V
0T
0Z
0U
15
0[
#900000
0!
0O
0P
1H
#910000
1!
1O
1P
0H
0\
1W
0V
1Z
1Q
05
#920000
0!
0O
0P
1H
#930000
1!
1O
1P
0H
0W
1T
1[
1U
0Q
#940000
0!
0O
0P
1H
#950000
1!
1O
1P
0H
1\
1V
0T
0Z
0U
15
0[
#960000
0!
0O
0P
1H
#970000
1!
1O
1P
0H
0\
1W
0V
1Z
1Q
05
#980000
0!
0O
0P
1H
#990000
1!
1O
1P
0H
0W
1T
1[
1U
0Q
