som_sub_sig/simulation/qsim/som_sub_sig.msim.vcd
$comment
	File created using the following command:
		vcd file som_sub_sig.msim.vcd -direction
$end
$date
	Wed Oct 09 14:34:43 2019
$end
$version
	ModelSim Version 10.1d
$end
$timescale
	1ps
$end
$scope module som_sub_sig_vlg_vec_tst $end
$var reg 8 ! a [7:0] $end
$var reg 1 " add_sub $end
$var reg 8 # b [7:0] $end
$var wire 1 $ result [7] $end
$var wire 1 % result [6] $end
$var wire 1 & result [5] $end
$var wire 1 ' result [4] $end
$var wire 1 ( result [3] $end
$var wire 1 ) result [2] $end
$var wire 1 * result [1] $end
$var wire 1 + result [0] $end
$var wire 1 , sampler $end
$scope module i1 $end
$var wire 1 - gnd $end
$var wire 1 . vcc $end
$var wire 1 / unknown $end
$var tri1 1 0 devclrn $end
$var tri1 1 1 devpor $end
$var tri1 1 2 devoe $end
$var wire 1 3 add_sub~combout $end
$var wire 1 4 Add0~0_combout $end
$var wire 1 5 Add0~2_cout $end
$var wire 1 6 Add0~3_combout $end
$var wire 1 7 Add0~5_combout $end
$var wire 1 8 Add0~4 $end
$var wire 1 9 Add0~6_combout $end
$var wire 1 : Add0~8_combout $end
$var wire 1 ; Add0~7 $end
$var wire 1 < Add0~9_combout $end
$var wire 1 = Add0~11_combout $end
$var wire 1 > Add0~10 $end
$var wire 1 ? Add0~12_combout $end
$var wire 1 @ Add0~14_combout $end
$var wire 1 A Add0~13 $end
$var wire 1 B Add0~15_combout $end
$var wire 1 C Add0~17_combout $end
$var wire 1 D Add0~16 $end
$var wire 1 E Add0~18_combout $end
$var wire 1 F Add0~20_combout $end
$var wire 1 G Add0~19 $end
$var wire 1 H Add0~21_combout $end
$var wire 1 I Add0~23_combout $end
$var wire 1 J Add0~22 $end
$var wire 1 K Add0~24_combout $end
$var wire 1 L b~combout [7] $end
$var wire 1 M b~combout [6] $end
$var wire 1 N b~combout [5] $end
$var wire 1 O b~combout [4] $end
$var wire 1 P b~combout [3] $end
$var wire 1 Q b~combout [2] $end
$var wire 1 R b~combout [1] $end
$var wire 1 S b~combout [0] $end
$var wire 1 T a~combout [7] $end
$var wire 1 U a~combout [6] $end
$var wire 1 V a~combout [5] $end
$var wire 1 W a~combout [4] $end
$var wire 1 X a~combout [3] $end
$var wire 1 Y a~combout [2] $end
$var wire 1 Z a~combout [1] $end
$var wire 1 [ a~combout [0] $end
$upscope $end
$upscope $end
$enddefinitions $end
#0
$dumpvars
b0 !
0"
b0 #
0+
0*
0)
0(
0'
0&
0%
0$
x,
0-
1.
x/
10
11
12
03
04
15
06
07
08
09
0:
1;
0<
0=
0>
0?
0@
1A
0B
0C
0D
0E
0F
1G
0H
0I
0J
0K
0S
0R
0Q
0P
0O
0N
0M
0L
0[
0Z
0Y
0X
0W
0V
0U
0T
$end
#10000
b100000 !
b101000 !
b10000 #
b11000 #
b11001 #
1S
1P
1O
1X
1V
0,
14
1=
1@
1?
1E
18
16
0?
1D
1B
1(
1&
0;
19
0E
1+
0(
1'
1>
1<
1*
0&
0A
1?
1)
0B
1(
0'
#30000
1"
13
1,
1I
1F
1C
0@
0=
1:
17
05
04
1K
1J
1H
0G
1E
1B
1A
0?
0<
09
0K
0H
0D
0B
1$
1%
1&
1'
0(
0)
0*
1G
0E
0$
0%
0'
1H
0&
1%
#50000
b10101000 !
b11101000 !
b11101010 !
b10011001 #
b11011001 #
b11111001 #
b11111011 #
b11100010 !
b11101011 #
b11100011 #
b11100010 #
0S
1R
0P
0O
1N
1M
1L
1Z
0X
1U
1T
0,
14
07
1=
1@
0C
0F
0I
19
0A
1?
0J
0H
1K
06
1;
09
0?
1D
1E
1H
1*
1(
0%
1$
1<
0E
0+
0*
0(
1&
1%
1)
0&
#70000
0"
03
1,
1I
1F
1C
0@
0=
0:
17
15
04
0K
0H
0G
1E
1B
1?
0>
0<
0;
19
08
1J
1H
1A
0?
1>
1<
1;
09
0$
0%
1&
1'
1(
0)
1*
1K
0D
0B
0A
1?
0>
0<
1%
0(
1)
0*
1G
0E
1D
1B
1A
0?
1$
0'
1(
0)
0J
0H
0G
1E
0D
0B
0&
1'
0(
0K
1J
1H
1G
0E
0%
1&
0'
1K
0J
0H
0$
1%
0&
0K
1$
0%
0$
#80000
b11110010 !
b11100110 #
b1110010 !
b110010 !
b11100100 #
b11101100 #
0R
1Q
1P
1W
0U
0T
0,
07
1:
1=
1B
1J
1H
1K
19
1>
1<
0A
1?
0K
1'
1%
1$
0?
0B
1*
1)
1(
0$
0(
0'
#100000
1"
13
1,
0I
0F
0C
1@
0=
0:
17
05
14
1K
0J
0H
1E
1D
1B
1?
0>
0<
09
18
0K
0E
1A
0?
0;
19
1$
0%
1&
1'
1(
0)
0*
0D
0B
1>
1<
0$
0&
0(
1*
1E
0A
1?
0'
1)
1D
1B
1&
1(
0E
1'
0&
#140000
b110110 !
b110100 !
b11001100 #
b111100 !
b101100 !
b10101100 !
b11101100 !
b11001110 #
1R
0N
0Z
1Y
1X
0W
1U
1T
0,
07
1C
09
0>
0<
1A
0?
0B
1H
1K
19
0G
1E
1?
1B
0*
0)
0(
0'
1%
1$
0H
1*
1&
1(
1'
0%
#190000
0"
03
1,
1I
1F
0C
0@
1=
1:
17
15
04
0K
1J
1H
1G
0E
0D
0B
0?
1>
1<
09
08
1K
0J
0H
1E
0A
1?
19
0$
1%
0&
0'
0(
1)
0*
0K
1D
1B
1$
0%
1&
1(
1*
0E
0$
1'
0&
#220000
b11001100 !
b1001110 #
b1110 #
b1010 #
b10 #
b11001000 !
b11000000 !
b1000000 !
b0 !
b0 #
0R
0Q
0P
0M
0L
0Y
0X
0V
0U
0T
0,
07
0:
0=
0F
0I
0<
0?
0G
1E
1J
1H
1K
1;
09
1<
1?
0)
0(
1&
1%
1$
0>
0<
0*
1)
1(
1A
0?
0)
0D
0B
0(
1G
0E
0'
0J
0H
0&
0K
0%
0$
#230000
1"
13
1,
1I
1F
1C
1@
1=
1:
17
05
14
1K
1J
1H
0G
1E
1D
1B
0A
1?
1>
1<
0;
19
18
0K
0H
0E
0B
0?
0<
09
1$
1%
1&
1'
1(
1)
1*
0$
0%
0&
0'
0(
0)
0*
#250000
0"
03
0,
0I
0F
0C
0@
0=
0:
07
15
04
1K
1H
1E
1B
1?
1<
19
08
1;
09
1$
1%
1&
1'
1(
1)
1*
0>
0<
0*
1A
0?
0)
0D
0B
0(
1G
0E
0'
0J
0H
0&
0K
0%
0$
