som_sub_unsig/simulation/qsim/som_sub_unsig.msim.vcd
$comment
	File created using the following command:
		vcd file som_sub_unsig.msim.vcd -direction
$end
$date
	Wed Oct 09 14:40:58 2019
$end
$version
	ModelSim Version 10.1d
$end
$timescale
	1ps
$end
$scope module som_sub_unsig_vlg_vec_tst $end
$var reg 8 ! a [7:0] $end
$var reg 1 " add_sub $end
$var reg 8 # b [7:0] $end
$var wire 1 $ result [7] $end
$var wire 1 % result [6] $end
$var wire 1 & result [5] $end
$var wire 1 ' result [4] $end
$var wire 1 ( result [3] $end
$var wire 1 ) result [2] $end
$var wire 1 * result [1] $end
$var wire 1 + result [0] $end
$var wire 1 , sampler $end
$scope module i1 $end
$var wire 1 - gnd $end
$var wire 1 . vcc $end
$var wire 1 / unknown $end
$var tri1 1 0 devclrn $end
$var tri1 1 1 devpor $end
$var tri1 1 2 devoe $end
$var wire 1 3 add_sub~combout $end
$var wire 1 4 Add0~0_combout $end
$var wire 1 5 Add0~2_cout $end
$var wire 1 6 Add0~3_combout $end
$var wire 1 7 Add0~5_combout $end
$var wire 1 8 Add0~4 $end
$var wire 1 9 Add0~6_combout $end
$var wire 1 : Add0~8_combout $end
$var wire 1 ; Add0~7 $end
$var wire 1 < Add0~9_combout $end
$var wire 1 = Add0~11_combout $end
$var wire 1 > Add0~10 $end
$var wire 1 ? Add0~12_combout $end
$var wire 1 @ Add0~14_combout $end
$var wire 1 A Add0~13 $end
$var wire 1 B Add0~15_combout $end
$var wire 1 C Add0~17_combout $end
$var wire 1 D Add0~16 $end
$var wire 1 E Add0~18_combout $end
$var wire 1 F Add0~20_combout $end
$var wire 1 G Add0~19 $end
$var wire 1 H Add0~21_combout $end
$var wire 1 I Add0~23_combout $end
$var wire 1 J Add0~22 $end
$var wire 1 K Add0~24_combout $end
$var wire 1 L a~combout [7] $end
$var wire 1 M a~combout [6] $end
$var wire 1 N a~combout [5] $end
$var wire 1 O a~combout [4] $end
$var wire 1 P a~combout [3] $end
$var wire 1 Q a~combout [2] $end
$var wire 1 R a~combout [1] $end
$var wire 1 S a~combout [0] $end
$var wire 1 T b~combout [7] $end
$var wire 1 U b~combout [6] $end
$var wire 1 V b~combout [5] $end
$var wire 1 W b~combout [4] $end
$var wire 1 X b~combout [3] $end
$var wire 1 Y b~combout [2] $end
$var wire 1 Z b~combout [1] $end
$var wire 1 [ b~combout [0] $end
$upscope $end
$upscope $end
$enddefinitions $end
#0
$dumpvars
b0 !
0"
b0 #
0+
0*
0)
0(
0'
0&
0%
0$
x,
0-
1.
x/
10
11
12
03
04
15
06
07
08
09
0:
1;
0<
0=
0>
0?
0@
1A
0B
0C
0D
0E
0F
1G
0H
0I
0J
0K
0S
0R
0Q
0P
0O
0N
0M
0L
0[
0Z
0Y
0X
0W
0V
0U
0T
$end
#10000
b10000 !
b10100 !
b10000 #
b10100 #
1Y
1W
1Q
1O
0,
1:
1@
1<
1B
0<
0B
1)
1'
0)
0'
#50000
1"
13
1,
1I
1F
1C
0@
1=
0:
17
05
14
1K
1J
1H
0G
1E
1B
0A
1?
1<
0;
19
18
0K
0H
0B
0<
09
1$
1%
1&
1'
1(
1)
1*
0$
0%
0'
0)
0*
#100000
b11100 !
b11110 !
b11100 #
b11110 #
b1110 #
b1010 #
0"
1Z
0Y
1X
0W
1R
1P
03
0,
19
1A
0?
0I
0F
0C
15
04
1B
1K
1H
1G
0E
08
1*
0(
0J
0H
1;
09
1'
1$
1%
0&
0K
1<
0%
0*
0$
1)
#150000
1"
13
1,
1I
1F
1C
1@
0=
1:
07
05
14
1K
1J
1H
0G
1E
0B
1?
0<
19
18
0K
0H
09
1$
1%
1&
0'
1(
0)
1*
0$
0%
0*
#200000
b111110 !
b111111 !
b101010 #
b101111 !
b101101 !
b100010 #
b110010 #
0"
0X
1W
1V
1S
0R
0O
1N
03
0,
16
0;
19
1D
1B
1G
0E
0I
0F
0:
17
15
04
0G
1E
0J
1K
09
08
1+
1*
1'
0&
1J
1H
0K
19
1&
1$
0*
1K
1%
0$
1*
1$
#250000
1"
13
1,
1I
1F
0C
0@
1=
1:
07
05
14
0K
0H
1G
0E
0D
0B
0?
1>
1<
1;
09
18
1H
1E
0A
1?
0>
0<
0;
19
0$
0%
0&
0'
0(
1)
0*
1D
1B
1A
0?
1>
1<
1%
1&
1(
0)
1*
0E
0D
0B
0A
1?
1'
0(
1)
1E
1D
1B
0&
0'
1(
0E
1&
1'
0&
#300000
b101001 !
b100001 !
b110000 #
b1 !
b0 !
b10000 #
b0 #
0"
0Z
0W
0V
0S
0Q
0P
0N
03
0,
06
0<
0?
0G
1E
0I
0F
0=
0:
15
04
1K
1?
1<
08
0+
0)
0(
1&
1;
09
1$
1(
1)
0>
0<
0*
1A
0?
0)
0D
0B
0(
1G
0E
0'
0J
0H
0&
0K
0%
0$
#350000
1"
13
1,
1I
1F
1C
1@
1=
1:
17
05
14
1K
1J
1H
0G
1E
1D
1B
0A
1?
1>
1<
0;
19
18
0K
0H
0E
0B
0?
0<
09
1$
1%
1&
1'
1(
1)
1*
0$
0%
0&
0'
0(
0)
0*
#400000
0"
03
0,
0I
0F
0C
0@
0=
0:
07
15
04
1K
1H
1E
1B
1?
1<
19
08
1;
09
1$
1%
1&
1'
1(
1)
1*
0>
0<
0*
1A
0?
0)
0D
0B
0(
1G
0E
0'
0J
0H
0&
0K
0%
0$
#450000
1"
13
1,
1I
1F
1C
1@
1=
1:
17
05
14
1K
1J
1H
0G
1E
1D
1B
0A
1?
1>
1<
0;
19
18
0K
0H
0E
0B
0?
0<
09
1$
1%
1&
1'
1(
1)
1*
0$
0%
0&
0'
0(
0)
0*
#500000
0"
03
0,
0I
0F
0C
0@
0=
0:
07
15
04
1K
1H
1E
1B
1?
1<
19
08
1;
09
1$
1%
1&
1'
1(
1)
1*
0>
0<
0*
1A
0?
0)
0D
0B
0(
1G
0E
0'
0J
0H
0&
0K
0%
0$
#550000
1"
13
1,
1I
1F
1C
1@
1=
1:
17
05
14
1K
1J
1H
0G
1E
1D
1B
0A
1?
1>
1<
0;
19
18
0K
0H
0E
0B
0?
0<
09
1$
1%
1&
1'
1(
1)
1*
0$
0%
0&
0'
0(
0)
0*
#600000
0"
03
0,
0I
0F
0C
0@
0=
0:
07
15
04
1K
1H
1E
1B
1?
1<
19
08
1;
09
1$
1%
1&
1'
1(
1)
1*
0>
0<
0*
1A
0?
0)
0D
0B
0(
1G
0E
0'
0J
0H
0&
0K
0%
0$
#650000
1"
13
1,
1I
1F
1C
1@
1=
1:
17
05
14
1K
1J
1H
0G
1E
1D
1B
0A
1?
1>
1<
0;
19
18
0K
0H
0E
0B
0?
0<
09
1$
1%
1&
1'
1(
1)
1*
0$
0%
0&
0'
0(
0)
0*
#700000
0"
03
0,
0I
0F
0C
0@
0=
0:
07
15
04
1K
1H
1E
1B
1?
1<
19
08
1;
09
1$
1%
1&
1'
1(
1)
1*
0>
0<
0*
1A
0?
0)
0D
0B
0(
1G
0E
0'
0J
0H
0&
0K
0%
0$
#750000
1"
13
1,
1I
1F
1C
1@
1=
1:
17
05
14
1K
1J
1H
0G
1E
1D
1B
0A
1?
1>
1<
0;
19
18
0K
0H
0E
0B
0?
0<
09
1$
1%
1&
1'
1(
1)
1*
0$
0%
0&
0'
0(
0)
0*
#800000
0"
03
0,
0I
0F
0C
0@
0=
0:
07
15
04
1K
1H
1E
1B
1?
1<
19
08
1;
09
1$
1%
1&
1'
1(
1)
1*
0>
0<
0*
1A
0?
0)
0D
0B
0(
1G
0E
0'
0J
0H
0&
0K
0%
0$
#850000
1"
13
1,
1I
1F
1C
1@
1=
1:
17
05
14
1K
1J
1H
0G
1E
1D
1B
0A
1?
1>
1<
0;
19
18
0K
0H
0E
0B
0?
0<
09
1$
1%
1&
1'
1(
1)
1*
0$
0%
0&
0'
0(
0)
0*
#900000
0"
03
0,
0I
0F
0C
0@
0=
0:
07
15
04
1K
1H
1E
1B
1?
1<
19
08
1;
09
1$
1%
1&
1'
1(
1)
1*
0>
0<
0*
1A
0?
0)
0D
0B
0(
1G
0E
0'
0J
0H
0&
0K
0%
0$
#950000
1"
13
1,
1I
1F
1C
1@
1=
1:
17
05
14
1K
1J
1H
0G
1E
1D
1B
0A
1?
1>
1<
0;
19
18
0K
0H
0E
0B
0?
0<
09
1$
1%
1&
1'
1(
1)
1*
0$
0%
0&
0'
0(
0)
0*
