micro/simulation/qsim/micro.msim.vcd
$comment
	File created using the following command:
		vcd file micro.msim.vcd -direction
$end
$date
	Wed Dec 04 11:35:57 2019
$end
$version
	ModelSim Version 10.1d
$end
$timescale
	1ps
$end
$scope module micro_vlg_vec_tst $end
$var reg 1 ! clk $end
$var reg 1 " reset $end
$var reg 8 # RI1_inC [7:0] $end
$var reg 8 $ RI2_inC [7:0] $end
$var wire 1 % outGenerico1 [15] $end
$var wire 1 & outGenerico1 [14] $end
$var wire 1 ' outGenerico1 [13] $end
$var wire 1 ( outGenerico1 [12] $end
$var wire 1 ) outGenerico1 [11] $end
$var wire 1 * outGenerico1 [10] $end
$var wire 1 + outGenerico1 [9] $end
$var wire 1 , outGenerico1 [8] $end
$var wire 1 - outGenerico1 [7] $end
$var wire 1 . outGenerico1 [6] $end
$var wire 1 / outGenerico1 [5] $end
$var wire 1 0 outGenerico1 [4] $end
$var wire 1 1 outGenerico1 [3] $end
$var wire 1 2 outGenerico1 [2] $end
$var wire 1 3 outGenerico1 [1] $end
$var wire 1 4 outGenerico1 [0] $end
$var wire 1 5 outGenerico2 [10] $end
$var wire 1 6 outGenerico2 [9] $end
$var wire 1 7 outGenerico2 [8] $end
$var wire 1 8 outGenerico2 [7] $end
$var wire 1 9 outGenerico2 [6] $end
$var wire 1 : outGenerico2 [5] $end
$var wire 1 ; outGenerico2 [4] $end
$var wire 1 < outGenerico2 [3] $end
$var wire 1 = outGenerico2 [2] $end
$var wire 1 > outGenerico2 [1] $end
$var wire 1 ? outGenerico2 [0] $end
$var wire 1 @ outGenerico3 [7] $end
$var wire 1 A outGenerico3 [6] $end
$var wire 1 B outGenerico3 [5] $end
$var wire 1 C outGenerico3 [4] $end
$var wire 1 D outGenerico3 [3] $end
$var wire 1 E outGenerico3 [2] $end
$var wire 1 F outGenerico3 [1] $end
$var wire 1 G outGenerico3 [0] $end
$var wire 1 H outGenerico4 [7] $end
$var wire 1 I outGenerico4 [6] $end
$var wire 1 J outGenerico4 [5] $end
$var wire 1 K outGenerico4 [4] $end
$var wire 1 L outGenerico4 [3] $end
$var wire 1 M outGenerico4 [2] $end
$var wire 1 N outGenerico4 [1] $end
$var wire 1 O outGenerico4 [0] $end
$var wire 1 P outGenerico5 [7] $end
$var wire 1 Q outGenerico5 [6] $end
$var wire 1 R outGenerico5 [5] $end
$var wire 1 S outGenerico5 [4] $end
$var wire 1 T outGenerico5 [3] $end
$var wire 1 U outGenerico5 [2] $end
$var wire 1 V outGenerico5 [1] $end
$var wire 1 W outGenerico5 [0] $end
$var wire 1 X outGenerico6 [7] $end
$var wire 1 Y outGenerico6 [6] $end
$var wire 1 Z outGenerico6 [5] $end
$var wire 1 [ outGenerico6 [4] $end
$var wire 1 \ outGenerico6 [3] $end
$var wire 1 ] outGenerico6 [2] $end
$var wire 1 ^ outGenerico6 [1] $end
$var wire 1 _ outGenerico6 [0] $end
$var wire 1 ` outGenerico7 $end
$var wire 1 a ResetOut $end
$var wire 1 b RO1_outC [7] $end
$var wire 1 c RO1_outC [6] $end
$var wire 1 d RO1_outC [5] $end
$var wire 1 e RO1_outC [4] $end
$var wire 1 f RO1_outC [3] $end
$var wire 1 g RO1_outC [2] $end
$var wire 1 h RO1_outC [1] $end
$var wire 1 i RO1_outC [0] $end
$var wire 1 j RO2_outC [7] $end
$var wire 1 k RO2_outC [6] $end
$var wire 1 l RO2_outC [5] $end
$var wire 1 m RO2_outC [4] $end
$var wire 1 n RO2_outC [3] $end
$var wire 1 o RO2_outC [2] $end
$var wire 1 p RO2_outC [1] $end
$var wire 1 q RO2_outC [0] $end
$var wire 1 r saiClock $end
$var wire 1 s sampler $end
$scope module i1 $end
$var wire 1 t gnd $end
$var wire 1 u vcc $end
$var wire 1 v unknown $end
$var tri1 1 w devclrn $end
$var tri1 1 x devpor $end
$var tri1 1 y devoe $end
$var wire 1 z Cont|state.busca~regout $end
$var wire 1 { Cont|state.decod~regout $end
$var wire 1 | Cont|state~31_combout $end
$var wire 1 } Cont|PC_ldC~combout $end
$var wire 1 ~ clk~combout $end
$var wire 1 !! DP|PC1|Add0~0_combout $end
$var wire 1 "! reset~combout $end
$var wire 1 #! Cont|state.inicio~regout $end
$var wire 1 $! DP|PC1|address_prog[8]~0_combout $end
$var wire 1 %! DP|PC1|Add0~1 $end
$var wire 1 &! DP|PC1|Add0~2_combout $end
$var wire 1 '! DP|PC1|Add0~3 $end
$var wire 1 (! DP|PC1|Add0~4_combout $end
$var wire 1 )! DP|PC1|Add0~5 $end
$var wire 1 *! DP|PC1|Add0~6_combout $end
$var wire 1 +! DP|PC1|Add0~7 $end
$var wire 1 ,! DP|PC1|Add0~8_combout $end
$var wire 1 -! DP|PC1|Add0~9 $end
$var wire 1 .! DP|PC1|Add0~10_combout $end
$var wire 1 /! DP|PC1|Add0~11 $end
$var wire 1 0! DP|PC1|Add0~12_combout $end
$var wire 1 1! DP|PC1|Add0~13 $end
$var wire 1 2! DP|PC1|Add0~14_combout $end
$var wire 1 3! DP|PC1|Add0~15 $end
$var wire 1 4! DP|PC1|Add0~16_combout $end
$var wire 1 5! DP|PC1|Add0~17 $end
$var wire 1 6! DP|PC1|Add0~18_combout $end
$var wire 1 7! DP|PC1|Add0~19 $end
$var wire 1 8! DP|PC1|Add0~20_combout $end
$var wire 1 9! DP|PC1|address_prog [10] $end
$var wire 1 :! DP|PC1|address_prog [9] $end
$var wire 1 ;! DP|PC1|address_prog [8] $end
$var wire 1 <! DP|PC1|address_prog [7] $end
$var wire 1 =! DP|PC1|address_prog [6] $end
$var wire 1 >! DP|PC1|address_prog [5] $end
$var wire 1 ?! DP|PC1|address_prog [4] $end
$var wire 1 @! DP|PC1|address_prog [3] $end
$var wire 1 A! DP|PC1|address_prog [2] $end
$var wire 1 B! DP|PC1|address_prog [1] $end
$var wire 1 C! DP|PC1|address_prog [0] $end
$upscope $end
$upscope $end
$enddefinitions $end
#0
$dumpvars
0!
1"
b0 #
b0 $
04
03
02
01
00
0/
0.
0-
0,
0+
0*
0)
0(
0'
0&
0%
0?
0>
0=
0<
0;
0:
09
08
07
06
05
0G
0F
0E
0D
0C
0B
0A
0@
0O
0N
0M
0L
0K
0J
0I
0H
0W
0V
0U
0T
0S
0R
0Q
0P
0_
0^
0]
0\
0[
0Z
0Y
0X
0`
1a
0i
0h
0g
0f
0e
0d
0c
0b
0q
0p
0o
0n
0m
0l
0k
0j
0r
xs
0t
1u
xv
1w
1x
1y
0z
0{
1|
x}
0~
1!!
1"!
0#!
1$!
0%!
0&!
1'!
0(!
0)!
0*!
1+!
0,!
0-!
0.!
1/!
00!
01!
02!
13!
04!
05!
06!
17!
08!
0C!
0B!
0A!
0@!
0?!
0>!
0=!
0<!
0;!
0:!
09!
$end
#5000
1!
1~
0s
1r
#10000
0!
0~
1s
0r
#15000
1!
1~
0s
1r
#20000
0"
0!
0"!
0~
1s
0a
0r
#25000
1!
1~
0s
1r
1#!
1z
x$!
1}
0|
1$!
#30000
0!
0~
1s
0r
1C!
1%!
0!!
1?
1&!
#35000
1!
1~
0s
1r
1{
0z
0}
0$!
#40000
0!
0~
1s
0r
#45000
1!
1~
0s
1r
0{
1|
#50000
0!
0~
1s
0r
#55000
1!
1~
0s
1r
1z
1}
0|
1$!
#60000
0!
0~
1s
0r
0C!
1B!
0%!
1!!
0'!
0&!
0?
1>
1'!
1&!
1(!
0(!
#65000
1!
1~
0s
1r
1{
0z
0}
0$!
#70000
0!
0~
1s
0r
#75000
1!
1~
0s
1r
0{
1|
#80000
0!
0~
1s
0r
#85000
1!
1~
0s
1r
1z
1}
0|
1$!
#90000
0!
0~
1s
0r
1C!
1%!
0!!
1?
0'!
0&!
1(!
#95000
1!
1~
0s
1r
1{
0z
0}
0$!
#100000
0!
0~
1s
0r
#105000
1!
1~
0s
1r
0{
1|
#110000
0!
0~
1s
0r
#115000
1!
1~
0s
1r
1z
1}
0|
1$!
#120000
0!
0~
1s
0r
0C!
0B!
1A!
0%!
1!!
1'!
1&!
1)!
0(!
0?
0>
1=
0&!
0)!
1(!
1*!
0*!
#125000
1!
1~
0s
1r
1{
0z
0}
0$!
#130000
0!
0~
1s
0r
#135000
1!
1~
0s
1r
0{
1|
#140000
0!
0~
1s
0r
#145000
1!
1~
0s
1r
1z
1}
0|
1$!
#150000
0!
0~
1s
0r
1C!
1%!
0!!
1?
1&!
#155000
1!
1~
0s
1r
1{
0z
0}
0$!
#160000
0!
0~
1s
0r
#165000
1!
1~
0s
1r
0{
1|
#170000
0!
0~
1s
0r
#175000
1!
1~
0s
1r
1z
1}
0|
1$!
#180000
0!
0~
1s
0r
0C!
1B!
0%!
1!!
0'!
0&!
0?
1>
1'!
1&!
1)!
0(!
0)!
1(!
1*!
0*!
#185000
1!
1~
0s
1r
1{
0z
0}
0$!
#190000
0!
0~
1s
0r
#195000
1!
1~
0s
1r
0{
1|
#200000
0!
0~
1s
0r
#205000
1!
1~
0s
1r
1z
1}
0|
1$!
#210000
0!
0~
1s
0r
1C!
1%!
0!!
1?
0'!
0&!
1)!
0(!
1*!
#215000
1!
1~
0s
1r
1{
0z
0}
0$!
#220000
0!
0~
1s
0r
#225000
1!
1~
0s
1r
0{
1|
#230000
0!
0~
1s
0r
#235000
1!
1~
0s
1r
1z
1}
0|
1$!
#240000
0!
0~
1s
0r
0C!
0B!
0A!
1@!
0%!
1!!
1'!
1&!
0)!
1(!
0+!
0*!
0?
0>
0=
1<
0&!
0(!
1+!
1*!
1,!
0,!
#245000
1!
1~
0s
1r
1{
0z
0}
0$!
#250000
0!
0~
1s
0r
#255000
1!
1~
0s
1r
0{
1|
#260000
0!
0~
1s
0r
#265000
1!
1~
0s
1r
1z
1}
0|
1$!
#270000
0!
0~
1s
0r
1C!
1%!
0!!
1?
1&!
#275000
1!
1~
0s
1r
1{
0z
0}
0$!
#280000
0!
0~
1s
0r
#285000
1!
1~
0s
1r
0{
1|
#290000
0!
0~
1s
0r
#295000
1!
1~
0s
1r
1z
1}
0|
1$!
#300000
0!
0~
1s
0r
0C!
1B!
0%!
1!!
0'!
0&!
0?
1>
1'!
1&!
1(!
0(!
#305000
1!
1~
0s
1r
1{
0z
0}
0$!
#310000
0!
0~
1s
0r
#315000
1!
1~
0s
1r
0{
1|
#320000
0!
0~
1s
0r
#325000
1!
1~
0s
1r
1z
1}
0|
1$!
#330000
0!
0~
1s
0r
1C!
1%!
0!!
1?
0'!
0&!
1(!
#335000
1!
1~
0s
1r
1{
0z
0}
0$!
#340000
0!
0~
1s
0r
#345000
1!
1~
0s
1r
0{
1|
#350000
0!
0~
1s
0r
#355000
1!
1~
0s
1r
1z
1}
0|
1$!
#360000
0!
0~
1s
0r
0C!
0B!
1A!
0%!
1!!
1'!
1&!
1)!
0(!
0?
0>
1=
0&!
0)!
1(!
0+!
0*!
1+!
1*!
1,!
0,!
#365000
1!
1~
0s
1r
1{
0z
0}
0$!
#370000
0!
0~
1s
0r
#375000
1!
1~
0s
1r
0{
1|
#380000
0!
0~
1s
0r
#385000
1!
1~
0s
1r
1z
1}
0|
1$!
#390000
0!
0~
1s
0r
1C!
1%!
0!!
1?
1&!
#395000
1!
1~
0s
1r
1{
0z
0}
0$!
#400000
0!
0~
1s
0r
#405000
1!
1~
0s
1r
0{
1|
#410000
0!
0~
1s
0r
#415000
1!
1~
0s
1r
1z
1}
0|
1$!
#420000
0!
0~
1s
0r
0C!
1B!
0%!
1!!
0'!
0&!
0?
1>
1'!
1&!
1)!
0(!
0)!
1(!
0+!
0*!
1+!
1*!
1,!
0,!
#425000
1!
1~
0s
1r
1{
0z
0}
0$!
#430000
0!
0~
1s
0r
#435000
1!
1~
0s
1r
0{
1|
#440000
0!
0~
1s
0r
#445000
1!
1~
0s
1r
1z
1}
0|
1$!
#450000
0!
0~
1s
0r
1C!
1%!
0!!
1?
0'!
0&!
1)!
0(!
0+!
0*!
1,!
#455000
1!
1~
0s
1r
1{
0z
0}
0$!
#460000
0!
0~
1s
0r
#465000
1!
1~
0s
1r
0{
1|
#470000
0!
0~
1s
0r
#475000
1!
1~
0s
1r
1z
1}
0|
1$!
#480000
0!
0~
1s
0r
0C!
0B!
0A!
0@!
1?!
0%!
1!!
1'!
1&!
0)!
1(!
1+!
1*!
1-!
0,!
0?
0>
0=
0<
1;
0&!
0(!
0*!
0-!
1,!
1.!
0.!
#485000
1!
1~
0s
1r
1{
0z
0}
0$!
#490000
0!
0~
1s
0r
#495000
1!
1~
0s
1r
0{
1|
#500000
0!
0~
1s
0r
#505000
1!
1~
0s
1r
1z
1}
0|
1$!
#510000
0!
0~
1s
0r
1C!
1%!
0!!
1?
1&!
#515000
1!
1~
0s
1r
1{
0z
0}
0$!
#520000
0!
0~
1s
0r
#525000
1!
1~
0s
1r
0{
1|
#530000
0!
0~
1s
0r
#535000
1!
1~
0s
1r
1z
1}
0|
1$!
#540000
0!
0~
1s
0r
0C!
1B!
0%!
1!!
0'!
0&!
0?
1>
1'!
1&!
1(!
0(!
#545000
1!
1~
0s
1r
1{
0z
0}
0$!
#550000
0!
0~
1s
0r
#555000
1!
1~
0s
1r
0{
1|
#560000
0!
0~
1s
0r
#565000
1!
1~
0s
1r
1z
1}
0|
1$!
#570000
0!
0~
1s
0r
1C!
1%!
0!!
1?
0'!
0&!
1(!
#575000
1!
1~
0s
1r
1{
0z
0}
0$!
#580000
0!
0~
1s
0r
#585000
1!
1~
0s
1r
0{
1|
#590000
0!
0~
1s
0r
#595000
1!
1~
0s
1r
1z
1}
0|
1$!
#600000
0!
0~
1s
0r
0C!
0B!
1A!
0%!
1!!
1'!
1&!
1)!
0(!
0?
0>
1=
0&!
0)!
1(!
1*!
0*!
#605000
1!
1~
0s
1r
1{
0z
0}
0$!
#610000
0!
0~
1s
0r
#615000
1!
1~
0s
1r
0{
1|
#620000
0!
0~
1s
0r
#625000
1!
1~
0s
1r
1z
1}
0|
1$!
#630000
0!
0~
1s
0r
1C!
1%!
0!!
1?
1&!
#635000
1!
1~
0s
1r
1{
0z
0}
0$!
#640000
0!
0~
1s
0r
#645000
1!
1~
0s
1r
0{
1|
#650000
0!
0~
1s
0r
#655000
1!
1~
0s
1r
1z
1}
0|
1$!
#660000
0!
0~
1s
0r
0C!
1B!
0%!
1!!
0'!
0&!
0?
1>
1'!
1&!
1)!
0(!
0)!
1(!
1*!
0*!
#665000
1!
1~
0s
1r
1{
0z
0}
0$!
#670000
0!
0~
1s
0r
#675000
1!
1~
0s
1r
0{
1|
#680000
0!
0~
1s
0r
#685000
1!
1~
0s
1r
1z
1}
0|
1$!
#690000
0!
0~
1s
0r
1C!
1%!
0!!
1?
0'!
0&!
1)!
0(!
1*!
#695000
1!
1~
0s
1r
1{
0z
0}
0$!
#700000
0!
0~
1s
0r
#705000
1!
1~
0s
1r
0{
1|
#710000
0!
0~
1s
0r
#715000
1!
1~
0s
1r
1z
1}
0|
1$!
#720000
0!
0~
1s
0r
0C!
0B!
0A!
1@!
0%!
1!!
1'!
1&!
0)!
1(!
0+!
0*!
0?
0>
0=
1<
0&!
0(!
1+!
1*!
1-!
0,!
0-!
1,!
1.!
0.!
#725000
1!
1~
0s
1r
1{
0z
0}
0$!
#730000
0!
0~
1s
0r
#735000
1!
1~
0s
1r
0{
1|
#740000
0!
0~
1s
0r
#745000
1!
1~
0s
1r
1z
1}
0|
1$!
#750000
0!
0~
1s
0r
1C!
1%!
0!!
1?
1&!
#755000
1!
1~
0s
1r
1{
0z
0}
0$!
#760000
0!
0~
1s
0r
#765000
1!
1~
0s
1r
0{
1|
#770000
0!
0~
1s
0r
#775000
1!
1~
0s
1r
1z
1}
0|
1$!
#780000
0!
0~
1s
0r
0C!
1B!
0%!
1!!
0'!
0&!
0?
1>
1'!
1&!
1(!
0(!
#785000
1!
1~
0s
1r
1{
0z
0}
0$!
#790000
0!
0~
1s
0r
#795000
1!
1~
0s
1r
0{
1|
#800000
0!
0~
1s
0r
#805000
1!
1~
0s
1r
1z
1}
0|
1$!
#810000
0!
0~
1s
0r
1C!
1%!
0!!
1?
0'!
0&!
1(!
#815000
1!
1~
0s
1r
1{
0z
0}
0$!
#820000
0!
0~
1s
0r
#825000
1!
1~
0s
1r
0{
1|
#830000
0!
0~
1s
0r
#835000
1!
1~
0s
1r
1z
1}
0|
1$!
#840000
0!
0~
1s
0r
0C!
0B!
1A!
0%!
1!!
1'!
1&!
1)!
0(!
0?
0>
1=
0&!
0)!
1(!
0+!
0*!
1+!
1*!
1-!
0,!
0-!
1,!
1.!
0.!
#845000
1!
1~
0s
1r
1{
0z
0}
0$!
#850000
0!
0~
1s
0r
#855000
1!
1~
0s
1r
0{
1|
#860000
0!
0~
1s
0r
#865000
1!
1~
0s
1r
1z
1}
0|
1$!
#870000
0!
0~
1s
0r
1C!
1%!
0!!
1?
1&!
#875000
1!
1~
0s
1r
1{
0z
0}
0$!
#880000
0!
0~
1s
0r
#885000
1!
1~
0s
1r
0{
1|
#890000
0!
0~
1s
0r
#895000
1!
1~
0s
1r
1z
1}
0|
1$!
#900000
0!
0~
1s
0r
0C!
1B!
0%!
1!!
0'!
0&!
0?
1>
1'!
1&!
1)!
0(!
0)!
1(!
0+!
0*!
1+!
1*!
1-!
0,!
0-!
1,!
1.!
0.!
#905000
1!
1~
0s
1r
1{
0z
0}
0$!
#910000
0!
0~
1s
0r
#915000
1!
1~
0s
1r
0{
1|
#920000
0!
0~
1s
0r
#925000
1!
1~
0s
1r
1z
1}
0|
1$!
#930000
0!
0~
1s
0r
1C!
1%!
0!!
1?
0'!
0&!
1)!
0(!
0+!
0*!
1-!
0,!
1.!
#935000
1!
1~
0s
1r
1{
0z
0}
0$!
#940000
0!
0~
1s
0r
#945000
1!
1~
0s
1r
0{
1|
#950000
0!
0~
1s
0r
#955000
1!
1~
0s
1r
1z
1}
0|
1$!
#960000
b1 #
0!
0~
1s
0r
0C!
0B!
0A!
0@!
0?!
1>!
0%!
1!!
1'!
1&!
0)!
1(!
1+!
1*!
0-!
1,!
0/!
0.!
0?
0>
0=
0<
0;
1:
0&!
0(!
0*!
0,!
1/!
1.!
10!
00!
#965000
1!
1~
0s
1r
1{
0z
0}
0$!
#970000
0!
0~
1s
0r
#975000
1!
1~
0s
1r
0{
1|
#980000
0!
0~
1s
0r
#985000
1!
1~
0s
1r
1z
1}
0|
1$!
#990000
0!
0~
1s
0r
1C!
1%!
0!!
1?
1&!
#995000
1!
1~
0s
1r
1{
0z
0}
0$!
#1000000
0!
0~
1s
0r
#1005000
1!
1~
0s
1r
0{
1|
#1010000
0!
0~
1s
0r
#1015000
1!
1~
0s
1r
1z
1}
0|
1$!
#1020000
0!
0~
1s
0r
0C!
1B!
0%!
1!!
0'!
0&!
0?
1>
1'!
1&!
1(!
0(!
#1025000
1!
1~
0s
1r
1{
0z
0}
0$!
#1030000
0!
0~
1s
0r
#1035000
1!
1~
0s
1r
0{
1|
#1040000
0!
0~
1s
0r
#1045000
1!
1~
0s
1r
1z
1}
0|
1$!
#1050000
0!
0~
1s
0r
1C!
1%!
0!!
1?
0'!
0&!
1(!
#1055000
1!
1~
0s
1r
1{
0z
0}
0$!
#1060000
0!
0~
1s
0r
#1065000
1!
1~
0s
1r
0{
1|
#1070000
0!
0~
1s
0r
#1075000
1!
1~
0s
1r
1z
1}
0|
1$!
#1080000
0!
0~
1s
0r
0C!
0B!
1A!
0%!
1!!
1'!
1&!
1)!
0(!
0?
0>
1=
0&!
0)!
1(!
1*!
0*!
#1085000
1!
1~
0s
1r
1{
0z
0}
0$!
#1090000
0!
0~
1s
0r
#1095000
1!
1~
0s
1r
0{
1|
#1100000
0!
0~
1s
0r
#1105000
1!
1~
0s
1r
1z
1}
0|
1$!
#1110000
0!
0~
1s
0r
1C!
1%!
0!!
1?
1&!
#1115000
1!
1~
0s
1r
1{
0z
0}
0$!
#1120000
0!
0~
1s
0r
#1125000
1!
1~
0s
1r
0{
1|
#1130000
0!
0~
1s
0r
#1135000
1!
1~
0s
1r
1z
1}
0|
1$!
#1140000
0!
0~
1s
0r
0C!
1B!
0%!
1!!
0'!
0&!
0?
1>
1'!
1&!
1)!
0(!
0)!
1(!
1*!
0*!
#1145000
1!
1~
0s
1r
1{
0z
0}
0$!
#1150000
0!
0~
1s
0r
#1155000
1!
1~
0s
1r
0{
1|
#1160000
0!
0~
1s
0r
#1165000
1!
1~
0s
1r
1z
1}
0|
1$!
#1170000
0!
0~
1s
0r
1C!
1%!
0!!
1?
0'!
0&!
1)!
0(!
1*!
#1175000
1!
1~
0s
1r
1{
0z
0}
0$!
#1180000
0!
0~
1s
0r
#1185000
1!
1~
0s
1r
0{
1|
#1190000
0!
0~
1s
0r
#1195000
1!
1~
0s
1r
1z
1}
0|
1$!
#1200000
0!
0~
1s
0r
0C!
0B!
0A!
1@!
0%!
1!!
1'!
1&!
0)!
1(!
0+!
0*!
0?
0>
0=
1<
0&!
0(!
1+!
1*!
1,!
0,!
#1205000
1!
1~
0s
1r
1{
0z
0}
0$!
#1210000
0!
0~
1s
0r
#1215000
1!
1~
0s
1r
0{
1|
#1220000
0!
0~
1s
0r
#1225000
1!
1~
0s
1r
1z
1}
0|
1$!
#1230000
0!
0~
1s
0r
1C!
1%!
0!!
1?
1&!
#1235000
1!
1~
0s
1r
1{
0z
0}
0$!
#1240000
0!
0~
1s
0r
#1245000
1!
1~
0s
1r
0{
1|
#1250000
0!
0~
1s
0r
#1255000
1!
1~
0s
1r
1z
1}
0|
1$!
#1260000
0!
0~
1s
0r
0C!
1B!
0%!
1!!
0'!
0&!
0?
1>
1'!
1&!
1(!
0(!
#1265000
1!
1~
0s
1r
1{
0z
0}
0$!
#1270000
0!
0~
1s
0r
#1275000
1!
1~
0s
1r
0{
1|
#1280000
b1000 $
b1010 $
0!
0~
1s
0r
#1285000
1!
1~
0s
1r
1z
1}
0|
1$!
#1290000
0!
0~
1s
0r
1C!
1%!
0!!
1?
0'!
0&!
1(!
#1295000
1!
1~
0s
1r
1{
0z
0}
0$!
#1300000
0!
0~
1s
0r
#1305000
1!
1~
0s
1r
0{
1|
#1310000
0!
0~
1s
0r
#1315000
1!
1~
0s
1r
1z
1}
0|
1$!
#1320000
0!
0~
1s
0r
0C!
0B!
1A!
0%!
1!!
1'!
1&!
1)!
0(!
0?
0>
1=
0&!
0)!
1(!
0+!
0*!
1+!
1*!
1,!
0,!
#1325000
1!
1~
0s
1r
1{
0z
0}
0$!
#1330000
0!
0~
1s
0r
#1335000
1!
1~
0s
1r
0{
1|
#1340000
0!
0~
1s
0r
#1345000
1!
1~
0s
1r
1z
1}
0|
1$!
#1350000
0!
0~
1s
0r
1C!
1%!
0!!
1?
1&!
#1355000
1!
1~
0s
1r
1{
0z
0}
0$!
#1360000
0!
0~
1s
0r
#1365000
1!
1~
0s
1r
0{
1|
#1370000
0!
0~
1s
0r
#1375000
1!
1~
0s
1r
1z
1}
0|
1$!
#1380000
0!
0~
1s
0r
0C!
1B!
0%!
1!!
0'!
0&!
0?
1>
1'!
1&!
1)!
0(!
0)!
1(!
0+!
0*!
1+!
1*!
1,!
0,!
#1385000
1!
1~
0s
1r
1{
0z
0}
0$!
#1390000
0!
0~
1s
0r
#1395000
1!
1~
0s
1r
0{
1|
#1400000
0!
0~
1s
0r
#1405000
1!
1~
0s
1r
1z
1}
0|
1$!
#1410000
0!
0~
1s
0r
1C!
1%!
0!!
1?
0'!
0&!
1)!
0(!
0+!
0*!
1,!
#1415000
1!
1~
0s
1r
1{
0z
0}
0$!
#1420000
0!
0~
1s
0r
#1425000
1!
1~
0s
1r
0{
1|
#1430000
0!
0~
1s
0r
#1435000
1!
1~
0s
1r
1z
1}
0|
1$!
#1440000
0!
0~
1s
0r
0C!
0B!
0A!
0@!
1?!
0%!
1!!
1'!
1&!
0)!
1(!
1+!
1*!
1-!
0,!
0?
0>
0=
0<
1;
0&!
0(!
0*!
0-!
1,!
0/!
0.!
1/!
1.!
10!
00!
#1445000
1!
1~
0s
1r
1{
0z
0}
0$!
#1450000
0!
0~
1s
0r
#1455000
1!
1~
0s
1r
0{
1|
#1460000
0!
0~
1s
0r
#1465000
1!
1~
0s
1r
1z
1}
0|
1$!
#1470000
0!
0~
1s
0r
1C!
1%!
0!!
1?
1&!
#1475000
1!
1~
0s
1r
1{
0z
0}
0$!
#1480000
0!
0~
1s
0r
#1485000
1!
1~
0s
1r
0{
1|
#1490000
0!
0~
1s
0r
#1495000
1!
1~
0s
1r
1z
1}
0|
1$!
#1500000
0!
0~
1s
0r
0C!
1B!
0%!
1!!
0'!
0&!
0?
1>
1'!
1&!
1(!
0(!
#1505000
1!
1~
0s
1r
1{
0z
0}
0$!
#1510000
0!
0~
1s
0r
#1515000
1!
1~
0s
1r
0{
1|
#1520000
0!
0~
1s
0r
#1525000
1!
1~
0s
1r
1z
1}
0|
1$!
#1530000
0!
0~
1s
0r
1C!
1%!
0!!
1?
0'!
0&!
1(!
#1535000
1!
1~
0s
1r
1{
0z
0}
0$!
#1540000
0!
0~
1s
0r
#1545000
1!
1~
0s
1r
0{
1|
#1550000
0!
0~
1s
0r
#1555000
1!
1~
0s
1r
1z
1}
0|
1$!
#1560000
0!
0~
1s
0r
0C!
0B!
1A!
0%!
1!!
1'!
1&!
1)!
0(!
0?
0>
1=
0&!
0)!
1(!
1*!
0*!
#1565000
1!
1~
0s
1r
1{
0z
0}
0$!
#1570000
0!
0~
1s
0r
#1575000
1!
1~
0s
1r
0{
1|
#1580000
0!
0~
1s
0r
#1585000
1!
1~
0s
1r
1z
1}
0|
1$!
#1590000
0!
0~
1s
0r
1C!
1%!
0!!
1?
1&!
#1595000
1!
1~
0s
1r
1{
0z
0}
0$!
#1600000
0!
0~
1s
0r
#1605000
1!
1~
0s
1r
0{
1|
#1610000
0!
0~
1s
0r
#1615000
1!
1~
0s
1r
1z
1}
0|
1$!
#1620000
0!
0~
1s
0r
0C!
1B!
0%!
1!!
0'!
0&!
0?
1>
1'!
1&!
1)!
0(!
0)!
1(!
1*!
0*!
#1625000
1!
1~
0s
1r
1{
0z
0}
0$!
#1630000
0!
0~
1s
0r
#1635000
1!
1~
0s
1r
0{
1|
#1640000
0!
0~
1s
0r
#1645000
1!
1~
0s
1r
1z
1}
0|
1$!
#1650000
0!
0~
1s
0r
1C!
1%!
0!!
1?
0'!
0&!
1)!
0(!
1*!
#1655000
1!
1~
0s
1r
1{
0z
0}
0$!
#1660000
0!
0~
1s
0r
#1665000
1!
1~
0s
1r
0{
1|
#1670000
0!
0~
1s
0r
#1675000
1!
1~
0s
1r
1z
1}
0|
1$!
#1680000
0!
0~
1s
0r
0C!
0B!
0A!
1@!
0%!
1!!
1'!
1&!
0)!
1(!
0+!
0*!
0?
0>
0=
1<
0&!
0(!
1+!
1*!
1-!
0,!
0-!
1,!
0/!
0.!
1/!
1.!
10!
00!
#1685000
1!
1~
0s
1r
1{
0z
0}
0$!
#1690000
0!
0~
1s
0r
#1695000
1!
1~
0s
1r
0{
1|
#1700000
0!
0~
1s
0r
#1705000
1!
1~
0s
1r
1z
1}
0|
1$!
#1710000
0!
0~
1s
0r
1C!
1%!
0!!
1?
1&!
#1715000
1!
1~
0s
1r
1{
0z
0}
0$!
#1720000
0!
0~
1s
0r
#1725000
1!
1~
0s
1r
0{
1|
#1730000
0!
0~
1s
0r
#1735000
1!
1~
0s
1r
1z
1}
0|
1$!
#1740000
0!
0~
1s
0r
0C!
1B!
0%!
1!!
0'!
0&!
0?
1>
1'!
1&!
1(!
0(!
#1745000
1!
1~
0s
1r
1{
0z
0}
0$!
#1750000
0!
0~
1s
0r
#1755000
1!
1~
0s
1r
0{
1|
#1760000
0!
0~
1s
0r
#1765000
1!
1~
0s
1r
1z
1}
0|
1$!
#1770000
0!
0~
1s
0r
1C!
1%!
0!!
1?
0'!
0&!
1(!
#1775000
1!
1~
0s
1r
1{
0z
0}
0$!
#1780000
0!
0~
1s
0r
#1785000
1!
1~
0s
1r
0{
1|
#1790000
0!
0~
1s
0r
#1795000
1!
1~
0s
1r
1z
1}
0|
1$!
#1800000
0!
0~
1s
0r
0C!
0B!
1A!
0%!
1!!
1'!
1&!
1)!
0(!
0?
0>
1=
0&!
0)!
1(!
0+!
0*!
1+!
1*!
1-!
0,!
0-!
1,!
0/!
0.!
1/!
1.!
10!
00!
#1805000
1!
1~
0s
1r
1{
0z
0}
0$!
#1810000
0!
0~
1s
0r
#1815000
1!
1~
0s
1r
0{
1|
#1820000
0!
0~
1s
0r
#1825000
1!
1~
0s
1r
1z
1}
0|
1$!
#1830000
0!
0~
1s
0r
1C!
1%!
0!!
1?
1&!
#1835000
1!
1~
0s
1r
1{
0z
0}
0$!
#1840000
0!
0~
1s
0r
#1845000
1!
1~
0s
1r
0{
1|
#1850000
0!
0~
1s
0r
#1855000
1!
1~
0s
1r
1z
1}
0|
1$!
#1860000
0!
0~
1s
0r
0C!
1B!
0%!
1!!
0'!
0&!
0?
1>
1'!
1&!
1)!
0(!
0)!
1(!
0+!
0*!
1+!
1*!
1-!
0,!
0-!
1,!
0/!
0.!
1/!
1.!
10!
00!
#1865000
1!
1~
0s
1r
1{
0z
0}
0$!
#1870000
0!
0~
1s
0r
#1875000
1!
1~
0s
1r
0{
1|
#1880000
0!
0~
1s
0r
#1885000
1!
1~
0s
1r
1z
1}
0|
1$!
#1890000
0!
0~
1s
0r
1C!
1%!
0!!
1?
0'!
0&!
1)!
0(!
0+!
0*!
1-!
0,!
0/!
0.!
10!
#1895000
1!
1~
0s
1r
1{
0z
0}
0$!
#1900000
0!
0~
1s
0r
#1905000
1!
1~
0s
1r
0{
1|
#1910000
0!
0~
1s
0r
#1915000
1!
1~
0s
1r
1z
1}
0|
1$!
